commit e315d4292c7aa0f502d6787b9112f5ab96dca68d (HEAD -> main, origin/main, origin/HEAD)
Author: azhou <axz120cn@gmail.com>
Date:   Thu May 12 15:48:49 2022 +0200

    apache2 MODIFICADO

commit 8f367a7601d6f46310bdbfb86a1c370ed388ee91
Author: azhou <axz120cn@gmail.com>
Date:   Thu May 12 15:40:04 2022 +0200

    apache2 file

commit 4529cca51fa391da96e456eeb182f181d980c083
Author: azhou <axz120cn@gmail.com>
Date:   Thu May 12 13:31:13 2022 +0000

    Initial commit